%YAML 1.1
%TAG !u! tag:unity3d.com,2011:
--- !u!114 &11400000
MonoBehaviour:
  m_ObjectHideFlags: 0
  m_CorrespondingSourceObject: {fileID: 0}
  m_PrefabInstance: {fileID: 0}
  m_PrefabAsset: {fileID: 0}
  m_GameObject: {fileID: 0}
  m_Enabled: 1
  m_EditorHideFlags: 0
  m_Script: {fileID: 11500000, guid: e651dbb3fbac04af2b8f5abf007ddc23, type: 3}
  m_Name: NetworkPrefabsList
  m_EditorClassIdentifier: 
  IsDefault: 0
  List:
  - Override: 0
    Prefab: {fileID: 2648683878895536490, guid: cbc1e82bdf2f9bb47b333fa8672c56e6,
      type: 3}
    SourcePrefabToOverride: {fileID: 0}
    SourceHashToOverride: 0
    OverridingTargetPrefab: {fileID: 0}
  - Override: 0
    Prefab: {fileID: 2648683878895536490, guid: d7446461a2f236442ba7d4006ebc6869,
      type: 3}
    SourcePrefabToOverride: {fileID: 0}
    SourceHashToOverride: 0
    OverridingTargetPrefab: {fileID: 0}
  - Override: 0
    Prefab: {fileID: 6373381273070539187, guid: 239b6fd9575eb0943bf6b2b945b3bba3,
      type: 3}
    SourcePrefabToOverride: {fileID: 0}
    SourceHashToOverride: 0
    OverridingTargetPrefab: {fileID: 0}
