%YAML 1.1
%TAG !u! tag:unity3d.com,2011:
--- !u!1045 &1
EditorBuildSettings:
  m_ObjectHideFlags: 0
  serializedVersion: 2
  m_Scenes:
  - enabled: 1
    path: Assets/Scenes/MainMenuScene.unity
    guid: 22c2864a6c6db2948af3906f9dba206c
  - enabled: 1
    path: Assets/Scenes/GameScene.unity
    guid: 99c9720ab356a0642a771bea13969a05
  - enabled: 1
    path: Assets/Scenes/GameScene2.unity
    guid: e059d21baef3e004883816fe8be7eaeb
  - enabled: 1
    path: Assets/Scenes/FinalScoreScene.unity
    guid: 2f4113b184dda4040b3eb3e3ba047ea2
  - enabled: 1
    path: Assets/Scenes/GameScene3.unity
    guid: 5b0a3c0c3fae35945a60dd742c203c13
  m_configObjects: {}
